<svg width="190" height="150" viewBox="0 0 190 150" fill="none" xmlns="http://www.w3.org/2000/svg">
<circle cx="75" cy="3" r="3" fill="#0F5D98"/>
<circle cx="11" cy="3" r="3" fill="#0F5D98"/>
<circle cx="139" cy="3" r="3" fill="#0F5D98"/>
<circle cx="91" cy="3" r="3" fill="#0F5D98"/>
<circle cx="27" cy="3" r="3" fill="#0F5D98"/>
<circle cx="155" cy="3" r="3" fill="#0F5D98"/>
<circle cx="107" cy="3" r="3" fill="#0F5D98"/>
<circle cx="43" cy="3" r="3" fill="#0F5D98"/>
<circle cx="171" cy="3" r="3" fill="#0F5D98"/>
<circle cx="123" cy="3" r="3" fill="#0F5D98"/>
<circle cx="59" cy="3" r="3" fill="#0F5D98"/>
<circle cx="187" cy="3" r="3" fill="#0F5D98"/>
<circle cx="75" cy="19" r="3" fill="#0F5D98"/>
<circle cx="11" cy="19" r="3" fill="#0F5D98"/>
<circle cx="139" cy="19" r="3" fill="#0F5D98"/>
<circle cx="91" cy="19" r="3" fill="#0F5D98"/>
<circle cx="27" cy="19" r="3" fill="#0F5D98"/>
<circle cx="155" cy="19" r="3" fill="#0F5D98"/>
<circle cx="107" cy="19" r="3" fill="#0F5D98"/>
<circle cx="43" cy="19" r="3" fill="#0F5D98"/>
<circle cx="171" cy="19" r="3" fill="#0F5D98"/>
<circle cx="123" cy="19" r="3" fill="#0F5D98"/>
<circle cx="59" cy="19" r="3" fill="#0F5D98"/>
<circle cx="187" cy="19" r="3" fill="#0F5D98"/>
<circle cx="75" cy="35" r="3" fill="#0F5D98"/>
<circle cx="11" cy="35" r="3" fill="#0F5D98"/>
<circle cx="139" cy="35" r="3" fill="#0F5D98"/>
<circle cx="91" cy="35" r="3" fill="#0F5D98"/>
<circle cx="27" cy="35" r="3" fill="#0F5D98"/>
<circle cx="155" cy="35" r="3" fill="#0F5D98"/>
<circle cx="107" cy="35" r="3" fill="#0F5D98"/>
<circle cx="43" cy="35" r="3" fill="#0F5D98"/>
<circle cx="171" cy="35" r="3" fill="#0F5D98"/>
<circle cx="123" cy="35" r="3" fill="#0F5D98"/>
<circle cx="59" cy="35" r="3" fill="#0F5D98"/>
<circle cx="187" cy="35" r="3" fill="#0F5D98"/>
<circle cx="75" cy="51" r="3" fill="#0F5D98"/>
<circle cx="11" cy="51" r="3" fill="#0F5D98"/>
<circle cx="139" cy="51" r="3" fill="#0F5D98"/>
<circle cx="91" cy="51" r="3" fill="#0F5D98"/>
<circle cx="27" cy="51" r="3" fill="#0F5D98"/>
<circle cx="155" cy="51" r="3" fill="#0F5D98"/>
<circle cx="107" cy="51" r="3" fill="#0F5D98"/>
<circle cx="43" cy="51" r="3" fill="#0F5D98"/>
<circle cx="171" cy="51" r="3" fill="#0F5D98"/>
<circle cx="123" cy="51" r="3" fill="#0F5D98"/>
<circle cx="59" cy="51" r="3" fill="#0F5D98"/>
<circle cx="187" cy="51" r="3" fill="#0F5D98"/>
<circle cx="75" cy="67" r="3" fill="#0F5D98"/>
<circle cx="11" cy="67" r="3" fill="#0F5D98"/>
<circle cx="139" cy="67" r="3" fill="#0F5D98"/>
<circle cx="91" cy="67" r="3" fill="#0F5D98"/>
<circle cx="27" cy="67" r="3" fill="#0F5D98"/>
<circle cx="155" cy="67" r="3" fill="#0F5D98"/>
<circle cx="107" cy="67" r="3" fill="#0F5D98"/>
<circle cx="43" cy="67" r="3" fill="#0F5D98"/>
<circle cx="171" cy="67" r="3" fill="#0F5D98"/>
<circle cx="123" cy="67" r="3" fill="#0F5D98"/>
<circle cx="59" cy="67" r="3" fill="#0F5D98"/>
<circle cx="187" cy="67" r="3" fill="#0F5D98"/>
<circle cx="75" cy="83" r="3" fill="#0F5D98"/>
<circle cx="11" cy="83" r="3" fill="#0F5D98"/>
<circle cx="139" cy="83" r="3" fill="#0F5D98"/>
<circle cx="91" cy="83" r="3" fill="#0F5D98"/>
<circle cx="27" cy="83" r="3" fill="#0F5D98"/>
<circle cx="155" cy="83" r="3" fill="#0F5D98"/>
<circle cx="107" cy="83" r="3" fill="#0F5D98"/>
<circle cx="43" cy="83" r="3" fill="#0F5D98"/>
<circle cx="171" cy="83" r="3" fill="#0F5D98"/>
<circle cx="123" cy="83" r="3" fill="#0F5D98"/>
<circle cx="59" cy="83" r="3" fill="#0F5D98"/>
<circle cx="187" cy="83" r="3" fill="#0F5D98"/>
<circle cx="75" cy="99" r="3" fill="#0F5D98"/>
<circle cx="11" cy="99" r="3" fill="#0F5D98"/>
<circle cx="139" cy="99" r="3" fill="#0F5D98"/>
<circle cx="91" cy="99" r="3" fill="#0F5D98"/>
<circle cx="27" cy="99" r="3" fill="#0F5D98"/>
<circle cx="155" cy="99" r="3" fill="#0F5D98"/>
<circle cx="107" cy="99" r="3" fill="#0F5D98"/>
<circle cx="43" cy="99" r="3" fill="#0F5D98"/>
<circle cx="171" cy="99" r="3" fill="#0F5D98"/>
<circle cx="123" cy="99" r="3" fill="#0F5D98"/>
<circle cx="59" cy="99" r="3" fill="#0F5D98"/>
<circle cx="187" cy="99" r="3" fill="#0F5D98"/>
<circle cx="75" cy="115" r="3" fill="#0F5D98"/>
<circle cx="11" cy="115" r="3" fill="#0F5D98"/>
<circle cx="139" cy="115" r="3" fill="#0F5D98"/>
<circle cx="91" cy="115" r="3" fill="#0F5D98"/>
<circle cx="27" cy="115" r="3" fill="#0F5D98"/>
<circle cx="155" cy="115" r="3" fill="#0F5D98"/>
<circle cx="107" cy="115" r="3" fill="#0F5D98"/>
<circle cx="43" cy="115" r="3" fill="#0F5D98"/>
<circle cx="171" cy="115" r="3" fill="#0F5D98"/>
<circle cx="123" cy="115" r="3" fill="#0F5D98"/>
<circle cx="59" cy="115" r="3" fill="#0F5D98"/>
<circle cx="187" cy="115" r="3" fill="#0F5D98"/>
<circle cx="75" cy="131" r="3" fill="#0F5D98"/>
<circle cx="11" cy="131" r="3" fill="#0F5D98"/>
<circle cx="139" cy="131" r="3" fill="#0F5D98"/>
<circle cx="91" cy="131" r="3" fill="#0F5D98"/>
<circle cx="27" cy="131" r="3" fill="#0F5D98"/>
<circle cx="155" cy="131" r="3" fill="#0F5D98"/>
<circle cx="107" cy="131" r="3" fill="#0F5D98"/>
<circle cx="43" cy="131" r="3" fill="#0F5D98"/>
<circle cx="171" cy="131" r="3" fill="#0F5D98"/>
<circle cx="123" cy="131" r="3" fill="#0F5D98"/>
<circle cx="59" cy="131" r="3" fill="#0F5D98"/>
<circle cx="187" cy="131" r="3" fill="#0F5D98"/>
<circle cx="75" cy="147" r="3" fill="#0F5D98"/>
<circle cx="11" cy="147" r="3" fill="#0F5D98"/>
<circle cx="139" cy="147" r="3" fill="#0F5D98"/>
<circle cx="91" cy="147" r="3" fill="#0F5D98"/>
<circle cx="27" cy="147" r="3" fill="#0F5D98"/>
<circle cx="155" cy="147" r="3" fill="#0F5D98"/>
<circle cx="107" cy="147" r="3" fill="#0F5D98"/>
<circle cx="43" cy="147" r="3" fill="#0F5D98"/>
<circle cx="171" cy="147" r="3" fill="#0F5D98"/>
<circle cx="123" cy="147" r="3" fill="#0F5D98"/>
<circle cx="59" cy="147" r="3" fill="#0F5D98"/>
<circle cx="187" cy="147" r="3" fill="#0F5D98"/>
</svg>
